…
results
```

    ## # A tibble: 50 × 4
    ##    city_state      estimate conf.low conf.high
    ##    <chr>              <dbl>    <dbl>     <dbl>
    ##  1 Albuquerque, NM    0.386    0.337     0.438
    ##  2 Atlanta, GA        0.383    0.353     0.415
    ##  3 Baltimore, MD      0.646    0.628     0.663
    ##  4 Baton Rouge, LA    0.462    0.414     0.511
    ##  5 Birmingham, AL     0.434    0.399     0.469
    ##  6 Boston, MA         0.505    0.465     0.545
    ##  7 Buffalo, NY        0.612    0.569     0.654
    ##  8 Charlotte, NC      0.300    0.266     0.336
    ##  9 Chicago, IL        0.736    0.724     0.747
    ## 10 Cincinnati, OH     0.445    0.408     0.483
    ## # … with 40 more rows
…
}

output = vector("list", length = 5000)
for (i in 1:5000) {
  
  output[[i]] = sim_mean_sd(n_obs = 30) %>% 
    broom::tidy() %>% 
    select(estimate, p.value)
}

bind_rows(output)
```

    ## # A tibble: 5,000 × 2
    ##    estimate p.value
    ##       <dbl>   <dbl>
    ##  1   -0.749   0.339
    ##  2   -1.64    0.129
    ##  3    0.935   0.291
    ##  4    0.443   0.651
    ##  5    0.367   0.690
    ##  6   -0.354   0.723
    ##  7   -0.200   0.837
    ##  8   -0.839   0.270
    ##  9    0.529   0.586
    ## 10    0.545   0.525
    ## # … with 4,990 more rows
…
